module github.com/shric/trpc

go 1.14

require (
	github.com/hekmon/cunits/v2 v2.0.2
	github.com/hekmon/transmissionrpc v1.1.1-0.20200621183139-05b4d9c9659e
	github.com/jessevdk/go-flags v1.4.0
	github.com/pelletier/go-toml v1.8.0
	github.com/shric/monkey v0.8.0
)
